RNA-seq Data
…
RNA-seq Data

Agenda

Today’s lab

RNA-Seq data visualization - this lab borrows heavily from a Carpentries incubator module on visualization.

RNA-Seq data

To start out with, fork the starter code and clone the repository to your local machine. Once we have done that, let’s explore the data provided:

# A tibble: 32,428 × 20
   gene    sample  expre…¹ organ…²   age sex   infec…³ strain  time tissue mouse
   <chr>   <chr>     <dbl> <chr>   <dbl> <chr> <chr>   <chr>  <dbl> <chr>  <dbl>
 1 Asl     GSM254…    1170 Mus mu…     8 Fema… Influe… C57BL…     8 Cereb…    14
 2 Apod    GSM254…   36194 Mus mu…     8 Fema… Influe… C57BL…     8 Cereb…    14
 3 Cyp2d22 GSM254…    4060 Mus mu…     8 Fema… Influe… C57BL…     8 Cereb…    14
 4 Klk6    GSM254…     287 Mus mu…     8 Fema… Influe… C57BL…     8 Cereb…    14
 5 Fcrls   GSM254…      85 Mus mu…     8 Fema… Influe… C57BL…     8 Cereb…    14
 6 Slc2a4  GSM254…     782 Mus mu…     8 Fema… Influe… C57BL…     8 Cereb…    14
 7 Exd2    GSM254…    1619 Mus mu…     8 Fema… Influe… C57BL…     8 Cereb…    14
 8 Gjc2    GSM254…     288 Mus mu…     8 Fema… Influe… C57BL…     8 Cereb…    14
 9 Plp1    GSM254…   43217 Mus mu…     8 Fema… Influe… C57BL…     8 Cereb…    14
10 Gnb4    GSM254…    1071 Mus mu…     8 Fema… Influe… C57BL…     8 Cereb…    14
# … with 32,418 more rows, 9 more variables: ENTREZID <dbl>, product <chr>,
#   ensembl_gene_id <chr>, external_synonym <chr>, chromosome_name <chr>,
#   gene_biotype <chr>, phenotype_description <chr>,
#   hsapiens_homolog_associated_gene_name <chr>, l2exp <dbl>, and abbreviated
#   variable names ¹​expression, ²​organism, ³​infection
…
